Analyzing Cement and Glass sector production and Energy Consumption
…
Reading country names and codes

This is provided with the repository by default in the input_data\europe_country_codes directory by default.

Show the code

country_codes <- read_xlsx(here('input_data', 'europe_country_codes', 'europe_country_code.xlsx'), sheet = 1)

country_codes

# A tibble: 27 × 2
   country  country_iso_code
   <chr>    <chr>           
 1 Austria  AT              
 2 Belgium  BE              
 3 Bulgaria BG              
 4 Croatia  HR              
 5 Cyprus   CY              
 6 Czechia  CZ              
 7 Denmark  DK              
 8 Estonia  EE              
 9 Finland  FI              
10 France   FR              
# ℹ 17 more rows
…
aidres_2_0_configurations <- read_csv2(here(aidres_data, 'aidres_2_0_configurations.csv'))
aidres_2_0_products <- read_csv2(here(aidres_data, 'aidres_2_0_products.csv'))

Production all sectors in 2018

Product flow of different products in various sectors

Show the code

aidres_result

# A tibble: 133,148 × 42
   nuts3 aidres_sector_id is_mix is_ref_route is_ref_scenario is_ref_solution
   <chr>            <dbl>  <dbl>        <dbl>           <dbl>           <dbl>
 1 AT121                3      0            1               1               1
 2 AT121                3      0            1               0               0
 3 AT121                3      0            1               0               0
 4 AT121                3      0            1               0               0
 5 AT121                3      0            1               0               0
 6 AT121                3      0            1               0               0
 7 AT121                3      0            1               0               0
 8 AT121                3      0            1               0               0
 9 AT121                3      0            1               0               0
10 AT121                3      0            0               0               0
# ℹ 133,138 more rows
# ℹ 36 more variables: is_pareto_solution <dbl>,
#   is_direct_emission_solution <dbl>, configuration_id <dbl>,
#   solution_id <dbl>, scenario_id <dbl>, `product_flow_[kt/y]` <dbl>,
#   production_factor <dbl>, `electricity_[twh/y]` <dbl>,
#   `electricity_[pj/y]` <dbl>, `alternative_fuel_mixture_[pj/y]` <dbl>,
#   `biomass_[pj/y]` <dbl>, `biomass_waste_[pj/y]` <dbl>, …
…
aidres_production_country_2018

# A tibble: 185 × 5
   country_code sector_id  product_id      production_route_name production_kt_y
   <chr>        <chr>      <chr>           <chr>                           <dbl>
 1 AT           cement     cement          EU-mix-2018                    4214. 
 2 AT           chemical   chemical-PE     (NG)PE                           94.3
 3 AT           chemical   chemical-PEA    (NG)PEA                         130. 
 4 AT           chemical   chemical-olefi… (LN)O                          1273. 
 5 AT           fertiliser fertiliser-amm… (NG)NH3                         383. 
 6 AT           glass      glass-container (NG)                            577. 
 7 AT           refineries refineries-lig… REF-SMR                        6189. 
 8 AT           steel      steel-primary   BF-BOF                         6177  
 9 AT           steel      steel-secondary Scraps EAF                      708  
10 BE           cement     cement          EU-mix-2018                    5538. 
# ℹ 175 more rows
…
aidres_2_0_production_country_2018

# A tibble: 186 × 5
   country_code sector_id  product_id      production_route_name production_kt_y
   <chr>        <chr>      <chr>           <chr>                           <dbl>
 1 AT           cement     cement          EU-mix-2018                    4214. 
 2 AT           chemical   chemical-PE     (NG)PE                           94.3
 3 AT           chemical   chemical-PEA    (NG)PEA                         130. 
 4 AT           chemical   chemical-olefi… (LN)O                          1273. 
 5 AT           fertiliser fertiliser-amm… (NG)NH3                         383. 
 6 AT           glass      glass-container (NG)                            577. 
 7 AT           refineries refineries-lig… REF-SMR                        6189. 
 8 AT           steel      steel-primary   BF-BOF                         6177  
 9 AT           steel      steel-secondary Scraps EAF                      708  
10 BE           cement     cement          EU-mix-2018                    5538. 
# ℹ 176 more rows
…
  aidres_energy_all

# A tibble: 338 × 9
   country_code country indicators   cement chemical fertiliser glass refineries
   <chr>        <chr>   <chr>         <dbl>    <dbl>      <dbl> <dbl>      <dbl>
 1 AT           Austria alternative…   3.12     0         0     0          0    
 2 AT           Austria biomass_pj_y   0        0         0     0          0    
 3 AT           Austria biomass_was…   1.87     0         0     0          0    
 4 AT           Austria coal_pj_y      4.85     0         0     0          0    
 5 AT           Austria coke_pj_y      0        0         0     0          0    
 6 AT           Austria crude_oil_p…   0        0         0     0        416.   
 7 AT           Austria electricity…   1.22     1.56      0.795 0.619      0.888
 8 AT           Austria hydrogen_pj…   0        0         0     0.025      0    
 9 AT           Austria methanol_pj…   0        0         0     0          0    
10 AT           Austria naphtha_pj_y   0       77.0       0     0          0    
# ℹ 328 more rows
# ℹ 1 more variable: steel <dbl>
…
  aidres_2_0_energy_all

# A tibble: 598 × 9
# Groups:   country_code [26]
   country_code indicators   country cement chemical fertiliser glass refineries
   <chr>        <chr>        <chr>    <dbl>    <dbl>      <dbl> <dbl>      <dbl>
 1 AT           alternative… Austria   3.12        0          0     0          0
 2 AT           ammonia_usa… Austria   0           0          0     0          0
 3 AT           bio_methano… Austria   0           0          0     0          0
 4 AT           bio_methano… Austria   0           0          0     0          0
 5 AT           bio_naphtha… Austria   0           0          0     0          0
 6 AT           bio_naphtha… Austria   0           0          0     0          0
 7 AT           biomass_imp… Austria   0           0          0     0          0
 8 AT           biomass_loc… Austria   0           0          0     0          0
 9 AT           biomass_usa… Austria   0           0          0     0          0
10 AT           biomass_was… Austria   1.87        0          0     0          0
# ℹ 588 more rows
# ℹ 1 more variable: steel <dbl>
…
  mutate(solid_fossil_fuels = rowSums(cbind(coal, coke), na.rm = TRUE),
         renew_bio = rowSums(cbind(biomass, biomass_waste), na.rm = TRUE),
         non_renew_waste = rowSums(cbind(plastic_mix, alternative_fuel_mixture), na.rm = TRUE),
         oil_petro_products = rowSums(cbind(crude_oil, naphtha), na.rm = TRUE)) |> 
  select(-c(alternative_fuel_mixture, coal, coke, biomass, biomass_waste, plastic_mix, crude_oil, naphtha)) |> 
  pivot_longer(cols = -c(country_code:metadata), names_to = 'fuel', values_to = 'pj') |> 
  separate_wider_delim(metadata, delim = '_', names = c('sector', 'source'))

  aidres_cleaned_cg

# A tibble: 468 × 6
   country_code country sector source fuel                   pj
   <chr>        <chr>   <chr>  <chr>  <chr>               <dbl>
 1 AT           Austria cem    aidres electricity         1.22 
 2 AT           Austria cem    aidres hydrogen            0    
 3 AT           Austria cem    aidres methanol            0    
 4 AT           Austria cem    aidres natural_gas         0    
 5 AT           Austria cem    aidres total              11.1  
 6 AT           Austria cem    aidres solid_fossil_fuels  4.85 
 7 AT           Austria cem    aidres renew_bio           1.87 
 8 AT           Austria cem    aidres non_renew_waste     3.12 
 9 AT           Austria cem    aidres oil_petro_products  0    
10 AT           Austria glass  aidres electricity         0.619
# ℹ 458 more rows
…
  mutate(solid_fossil_fuels = rowSums(cbind(coal, coke), na.rm = TRUE),
         renew_bio = rowSums(cbind(biomass, biomass_waste), na.rm = TRUE),
         non_renew_waste = rowSums(cbind(plastic_mix, alternative_fuel_mixture), na.rm = TRUE),
         oil_petro_products = rowSums(cbind(crude_oil, naphtha), na.rm = TRUE)) |> 
  select(-c(alternative_fuel_mixture, coal, coke, biomass, biomass_waste, plastic_mix, crude_oil, naphtha)) |> 
  pivot_longer(cols = -c(country_code:metadata), names_to = 'fuel', values_to = 'pj') |> 
  separate_wider_delim(metadata, delim = '_', names = c('sector', 'source'))

  aidres_2_0_cleaned_cg

# A tibble: 988 × 6
# Groups:   country_code [26]
   country_code country sector source fuel                   pj
   <chr>        <chr>   <chr>  <chr>  <chr>               <dbl>
 1 AT           Austria cem    aidres ammonia              0   
 2 AT           Austria cem    aidres bio_methanol_import  0   
 3 AT           Austria cem    aidres bio_methanol_local   0   
 4 AT           Austria cem    aidres bio_naphtha_import   0   
 5 AT           Austria cem    aidres bio_naphtha_local    0   
 6 AT           Austria cem    aidres biomass_import       0   
 7 AT           Austria cem    aidres biomass_local        0   
 8 AT           Austria cem    aidres coal_steel           0   
 9 AT           Austria cem    aidres electricity          1.22
10 AT           Austria cem    aidres ethane               0   
# ℹ 978 more rows
…
