Analyzing Chemical Sector enrgy consumption
…
Reading country names and codes

This is provided with the repository by default in the input_data\europe_country_codes directory by default.

Show the code

country_codes <- read_xlsx(here('input_data', 'europe_country_codes', 'europe_country_code.xlsx'), sheet = 1)

country_codes

# A tibble: 27 × 2
   country  country_iso_code
   <chr>    <chr>           
 1 Austria  AT              
 2 Belgium  BE              
 3 Bulgaria BG              
 4 Croatia  HR              
 5 Cyprus   CY              
 6 Czechia  CZ              
 7 Denmark  DK              
 8 Estonia  EE              
 9 Finland  FI              
10 France   FR              
# ℹ 17 more rows
…
  aidres_energy_all

# A tibble: 338 × 9
   country_code country indicators   cement chemical fertiliser glass refineries
   <chr>        <chr>   <chr>         <dbl>    <dbl>      <dbl> <dbl>      <dbl>
 1 AT           Austria alternative…   3.12     0         0     0          0    
 2 AT           Austria biomass_pj_y   0        0         0     0          0    
 3 AT           Austria biomass_was…   1.87     0         0     0          0    
 4 AT           Austria coal_pj_y      4.85     0         0     0          0    
 5 AT           Austria coke_pj_y      0        0         0     0          0    
 6 AT           Austria crude_oil_p…   0        0         0     0        416.   
 7 AT           Austria electricity…   1.22     1.56      0.795 0.619      0.888
 8 AT           Austria hydrogen_pj…   0        0         0     0.025      0    
 9 AT           Austria methanol_pj…   0        0         0     0          0    
10 AT           Austria naphtha_pj_y   0       77.0       0     0          0    
# ℹ 328 more rows
# ℹ 1 more variable: steel <dbl>
…
aidres_cleaned_chem

# A tibble: 234 × 4
   country_code country fuel               chem_aidres
   <chr>        <chr>   <chr>                    <dbl>
 1 AT           Austria electricity               2.36
 2 AT           Austria hydrogen                  0   
 3 AT           Austria methanol                  0   
 4 AT           Austria natural_gas              11.9 
 5 AT           Austria total                    91.3 
 6 AT           Austria solid_fossil_fuels        0   
 7 AT           Austria renew_bio                 0   
 8 AT           Austria non_renew_waste           0   
 9 AT           Austria oil_petro_products       77.0 
10 BE           Belgium electricity              20.7 
# ℹ 224 more rows
…
Adding missing grouping variables: `year`

Show the code

chem_energy_eurostat

# A tibble: 216 × 5
    year country_code country fuel               chem_eurostat
   <dbl> <chr>        <chr>   <chr>                      <dbl>
 1  2018 AT           Austria electricity               17.1  
 2  2018 AT           Austria heat                       2.61 
 3  2018 AT           Austria natural_gas               30.0  
 4  2018 AT           Austria non_renew_waste            2.64 
 5  2018 AT           Austria oil_petro_products        64.6  
 6  2018 AT           Austria renew_bio                  2.18 
 7  2018 AT           Austria solid_fossil_fuels         0.953
 8  2018 AT           Austria total                    120.   
 9  2018 BE           Belgium electricity               52.6  
10  2018 BE           Belgium heat                      11.6  
# ℹ 206 more rows

Joining AIDRES and EUROSTAT Chemical energy consumption

Show the code

chem_eurostat_aidres <- chem_energy_eurostat |> 
  full_join(aidres_cleaned_chem, by = join_by(country_code, country, fuel)) |> 
  select(country_code, country, fuel, everything()) |> 
  pivot_longer(cols = chem_eurostat:chem_aidres, names_to = 'metadata', values_to = 'pj') |> 
  mutate(pj = round(pj, 2))|> 
  separate_wider_delim(metadata, delim = '_', names = c('sector', 'source'))

chem_eurostat_aidres 

# A tibble: 536 × 7
   country_code country fuel                year sector source      pj
   <chr>        <chr>   <chr>              <dbl> <chr>  <chr>    <dbl>
 1 AT           Austria electricity         2018 chem   eurostat 17.1 
 2 AT           Austria electricity         2018 chem   aidres    2.36
 3 AT           Austria heat                2018 chem   eurostat  2.61
 4 AT           Austria heat                2018 chem   aidres   NA   
 5 AT           Austria natural_gas         2018 chem   eurostat 30.0 
 6 AT           Austria natural_gas         2018 chem   aidres   11.9 
 7 AT           Austria non_renew_waste     2018 chem   eurostat  2.64
 8 AT           Austria non_renew_waste     2018 chem   aidres    0   
 9 AT           Austria oil_petro_products  2018 chem   eurostat 64.6 
10 AT           Austria oil_petro_products  2018 chem   aidres   77.0 
# ℹ 526 more rows
…
chem_eurostat_aidres |> filter(sector == 'chem',
                   source != 'eurostat') |> 
  select(-country, -sector) |> 
  select(-year) |> 
  rbind(chem_fec_bc1) |> 
  arrange(country_code, fuel) -> compare_aidres_idess_basic_chem

compare_aidres_idess_basic_chem

# A tibble: 484 × 4
   country_code fuel               source      pj
   <chr>        <chr>              <chr>    <dbl>
 1 AT           electricity        aidres  2.36  
 2 AT           electricity        idees   9.98  
 3 AT           heat               aidres NA     
 4 AT           heat               idees   0.0284
 5 AT           hydrogen           aidres  0     
 6 AT           methanol           aidres  0     
 7 AT           natural_gas        aidres 11.9   
 8 AT           natural_gas        idees  24.8   
 9 AT           non_renew_waste    aidres  0     
10 AT           oil_petro_products aidres 77.0   
# ℹ 474 more rows
…
chlorine_data_2018 <- read_xlsx(here(eurochlor_data, 'chlorine_data_2018.xlsx'), sheet = 'Sheet2', range = 'A1:H67') |> 
  clean_names() |> 
  left_join(country_codes, by = join_by('country' == 'country')) |> 
  select(country_iso_code, country, company, site, everything()) |> 
  filter(!is.na(country_iso_code)) |> 
  select(-thousand_tonnes) |> 
  pivot_longer(cols = murcury:other, names_to = 'production_routes', values_to = 'kt') |> 
  mutate(kt = replace_na(kt, 0)) |> 
  group_by(country_iso_code , country, production_routes) |> 
  reframe(kt = sum(cbind(kt)))

chlorine_data_2018

# A tibble: 72 × 4
   country_iso_code country production_routes    kt
   <chr>            <chr>   <chr>             <dbl>
 1 AT               Austria diapharm              0
 2 AT               Austria membrane             75
 3 AT               Austria murcury               0
 4 AT               Austria other                 0
 5 BE               Belgium diapharm              0
 6 BE               Belgium membrane           1074
 7 BE               Belgium murcury               0
 8 BE               Belgium other                 0
 9 CZ               Czechia diapharm              0
10 CZ               Czechia membrane             82
# ℹ 62 more rows
…
chlorine_sec <- read_xlsx(here(eurochlor_data, 'chlorine_data_2018.xlsx'), sheet = 'Sheet2', range = 'L1:M5') 

chlorine_production_energy <- left_join(chlorine_data_2018, chlorine_sec, 
                                        by = join_by(production_routes == process_routes)) |> 
  mutate(pj = kt*pj_mt/1000) |> 
  select(-pj_mt, -country,-pj_mt, -kt) |> 
  group_by(country_iso_code ) |> 
  reframe(electricity = sum(pj)) |> 
  mutate(total = electricity) |> 
  pivot_longer(cols = electricity:total, names_to = 'fuel', values_to = 'pj_cl') |> 
  rename('country_code' = country_iso_code )

chlorine_production_energy

# A tibble: 36 × 3
   country_code fuel         pj_cl
   <chr>        <chr>        <dbl>
 1 AT           electricity  0.562
 2 AT           total        0.562
 3 BE           electricity  8.06 
 4 BE           total        8.06 
 5 CZ           electricity  0.615
 6 CZ           total        0.615
 7 DE           electricity 43.9  
 8 DE           total       43.9  
 9 EL           electricity  0.075
10 EL           total        0.075
# ℹ 26 more rows
…
chem_eurostat_aidres |> filter(sector == 'chem') |> 
  select(-country, -sector, -year) |> 
  rbind(chem_fec_bc_) |> 
  arrange(country_code, fuel) -> chem_basic_energy

chem_basic_energy

# A tibble: 752 × 4
   country_code fuel        source        pj
   <chr>        <chr>       <chr>      <dbl>
 1 AT           electricity eurostat 17.1   
 2 AT           electricity aidres    2.36  
 3 AT           electricity idees     9.98  
 4 AT           heat        eurostat  2.61  
 5 AT           heat        aidres   NA     
 6 AT           heat        idees     0.0284
 7 AT           hydrogen    eurostat NA     
 8 AT           hydrogen    aidres    0     
 9 AT           methanol    eurostat NA     
10 AT           methanol    aidres    0     
# ℹ 742 more rows

Joining Chlorine data with AIDRES

Show the code

chem_basic_energy2 <- chem_basic_energy |> 
  pivot_wider(values_from = pj, names_from = source) |> 
  left_join(chlorine_production_energy, by = join_by('country_code', 'fuel')) |> 
  mutate(aidres = rowSums(cbind(aidres, pj_cl), na.rm = TRUE), .keep = 'unused') |> 
  pivot_longer(cols = eurostat:idees, names_to = 'source', values_to = 'pj') |> 
  mutate(pj = replace_na(pj, 0))

chem_basic_energy2

# A tibble: 885 × 4
   country_code fuel        source        pj
   <chr>        <chr>       <chr>      <dbl>
 1 AT           electricity eurostat 17.1   
 2 AT           electricity aidres    2.92  
 3 AT           electricity idees     9.98  
 4 AT           heat        eurostat  2.61  
 5 AT           heat        aidres    0     
 6 AT           heat        idees     0.0284
 7 AT           hydrogen    eurostat  0     
 8 AT           hydrogen    aidres    0     
 9 AT           hydrogen    idees     0     
10 AT           methanol    eurostat  0     
# ℹ 875 more rows
…
chem_fec_oc_gep

# A tibble: 27 × 4
   country_code process             fuel         gj_idees
   <chr>        <chr>               <chr>           <dbl>
 1 AT           chem_other_gen_elec electricity  6599018.
 2 BE           chem_other_gen_elec electricity 10529552.
 3 BG           chem_other_gen_elec electricity  2218191.
 4 HR           chem_other_gen_elec electricity   835223.
 5 CY           chem_other_gen_elec electricity   133286.
 6 CZ           chem_other_gen_elec electricity  3259530.
 7 DK           chem_other_gen_elec electricity  4521698.
 8 EE           chem_other_gen_elec electricity    65033.
 9 FI           chem_other_gen_elec electricity  6818156.
10 FR           chem_other_gen_elec electricity 23251675.
# ℹ 17 more rows
…
chem_fec_oc_lt

# A tibble: 135 × 4
   country_code process            fuel               gj_idees
   <chr>        <chr>              <chr>                 <dbl>
 1 AT           chem_other_heat_lt electricity          88170.
 2 AT           chem_other_heat_lt heat                  9035.
 3 AT           chem_other_heat_lt natural_gas         147360.
 4 AT           chem_other_heat_lt oil_petro_products    1025.
 5 AT           chem_other_heat_lt renew_bio                0 
 6 BE           chem_other_heat_lt electricity         262738.
 7 BE           chem_other_heat_lt heat                 26626.
 8 BE           chem_other_heat_lt natural_gas         604687.
 9 BE           chem_other_heat_lt oil_petro_products    8471.
10 BE           chem_other_heat_lt renew_bio                0 
# ℹ 125 more rows
…
chem_fec_oc_ht

# A tibble: 162 × 4
   country_code process            fuel               gj_idees
   <chr>        <chr>              <chr>                 <dbl>
 1 AT           chem_other_heat_ht electricity           3232.
 2 AT           chem_other_heat_ht natural_gas        1902666.
 3 AT           chem_other_heat_ht oil_petro_products   63379.
 4 AT           chem_other_heat_ht renew_bio           906155.
 5 AT           chem_other_heat_ht solid_fossil_fuels  105928.
 6 AT           chem_other_heat_ht steam               520882.
 7 BE           chem_other_heat_ht electricity          10715.
 8 BE           chem_other_heat_ht natural_gas        4486477.
 9 BE           chem_other_heat_ht oil_petro_products 8711240.
10 BE           chem_other_heat_ht renew_bio            45345.
# ℹ 152 more rows
…
test_list_chem_fec_oc_fur <- lapply(country_codes$country_iso_code, read_data_chem_fec_oc_fur)
chem_fec_oc_fur <- bind_rows(test_list_chem_fec_oc_fur, .id = "id") |> select(-id)

chem_fec_oc_fur

# A tibble: 108 × 4
   country_code process             fuel               gj_idees
   <chr>        <chr>               <chr>                 <dbl>
 1 AT           chem_other_heat_fur electricity          86864.
 2 AT           chem_other_heat_fur natural_gas        1451776.
 3 AT           chem_other_heat_fur oil_petro_products   35353.
 4 AT           chem_other_heat_fur solid_fossil_fuels   80825.
 5 BE           chem_other_heat_fur electricity         218964.
 6 BE           chem_other_heat_fur natural_gas        5039404.
 7 BE           chem_other_heat_fur oil_petro_products 1155371.
 8 BE           chem_other_heat_fur solid_fossil_fuels   34138.
 9 BG           chem_other_heat_fur electricity           5840.
10 BG           chem_other_heat_fur natural_gas        1921715.
# ℹ 98 more rows
…
chem_fec_oc_cool

# A tibble: 81 × 4
   country_code process                 fuel               gj_idees
   <chr>        <chr>                   <chr>                 <dbl>
 1 AT           chem_other_process_cool natural_gas         161788.
 2 AT           chem_other_process_cool oil_petro_products    1016.
 3 AT           chem_other_process_cool solid_fossil_fuels    2323.
 4 BE           chem_other_process_cool natural_gas         664290.
 5 BE           chem_other_process_cool oil_petro_products   22561.
 6 BE           chem_other_process_cool solid_fossil_fuels     667.
 7 BG           chem_other_process_cool natural_gas         467030.
 8 BG           chem_other_process_cool oil_petro_products   12037.
 9 BG           chem_other_process_cool solid_fossil_fuels   30673.
10 HR           chem_other_process_cool natural_gas         109273.
# ℹ 71 more rows
…
chem_oth_process_eff <- tibble(process, efficiency)

left_join(chem_fec_oc3, chem_oth_process_eff, by = join_by('process')) |> 
  mutate(pj_idees = gj_idees*efficiency/10^6) |> 
  select(-efficiency) -> chem_fec_oc_

chem_fec_oc_ |> group_by(country_code , fuel) |> 
  reframe(pj_idees = sum(pj_idees)) |> 
  mutate(source = 'idees_oth') |> 
  rename('pj' = 'pj_idees') -> chem_others_idees

chem_others_idees

# A tibble: 216 × 4
   country_code fuel                     pj source   
   <chr>        <chr>                 <dbl> <chr>    
 1 AT           electricity         6.76    idees_oth
 2 AT           heat                0.00858 idees_oth
 3 AT           natural_gas         3.38    idees_oth
 4 AT           oil_petro_products  0.0938  idees_oth
 5 AT           renew_bio           0.861   idees_oth
 6 AT           solid_fossil_fuels  0.175   idees_oth
 7 AT           steam               0.495   idees_oth
 8 AT           total              11.8     idees_oth
 9 BE           electricity        11.0     idees_oth
10 BE           heat                0.0253  idees_oth
# ℹ 206 more rows
…
All chemical data

Final data frame containing Chemical sector energy consumption in AIDRES, EUROSTAT, and JRC-IDEES

Show the code

chem_basic_energy2 |> 
  rbind(chem_others_idees) |> 
  group_by(country_code, fuel, source) |> 
  reframe(pj = sum(pj)) -> chem_fec_source

chem_fec_source

# A tibble: 1,101 × 4
   country_code fuel        source          pj
   <chr>        <chr>       <chr>        <dbl>
 1 AT           electricity aidres     2.92   
 2 AT           electricity eurostat  17.1    
 3 AT           electricity idees      9.98   
 4 AT           electricity idees_oth  6.76   
 5 AT           heat        aidres     0      
 6 AT           heat        eurostat   2.61   
 7 AT           heat        idees      0.0284 
 8 AT           heat        idees_oth  0.00858
 9 AT           hydrogen    aidres     0      
10 AT           hydrogen    eurostat   0      
# ℹ 1,091 more rows
…
chem_basic_energy2 |> pivot_wider(names_from = source, values_from = pj) |> 
  rename('idees_basic' = idees,
         'aidres_cl' = aidres) |> 
  pivot_longer(cols = eurostat:idees_basic, names_to = 'source', values_to = 'pj') |> 
  rbind(chem_others_idees) |> 
  arrange(country_code, fuel, source) |> 
  pivot_wider(names_from = source, values_from = pj) |> 
  mutate(aidres = rowSums(cbind(aidres_cl,idees_oth), na.rm=TRUE),
         idees = rowSums(cbind(idees_oth,idees_basic), na.rm = TRUE),
         .keep = 'unused') |> 
  pivot_longer(eurostat:idees, names_to = 'source', values_to = 'pj') -> chem_fec_source2

chem_fec_source2

# A tibble: 885 × 4
   country_code fuel        source         pj
   <chr>        <chr>       <chr>       <dbl>
 1 AT           electricity eurostat 17.1    
 2 AT           electricity aidres    9.69   
 3 AT           electricity idees    16.7    
 4 AT           heat        eurostat  2.61   
 5 AT           heat        aidres    0.00858
 6 AT           heat        idees     0.0370 
 7 AT           hydrogen    eurostat  0      
 8 AT           hydrogen    aidres    0      
 9 AT           hydrogen    idees     0      
10 AT           methanol    eurostat  0      
# ℹ 875 more rows
…
chem_others_idees |> 
  pivot_wider(names_from = fuel, values_from = pj) |> 
  mutate(electricity = electricity/ total,
         oil_petro_product = oil_petro_products / total,
         renew_bio = renew_bio / total,
         solid_fossil_fuels = solid_fossil_fuels / total,
         total = total / total,
         .keep = 'unused'
         ) |> 
  mutate(unit = 'pj_pj') |> 
  select(country_code, source, unit, everything()) -> other_chem_sec

other_chem_sec

# A tibble: 27 × 11
   country_code source unit  electricity    heat natural_gas renew_bio
   <chr>        <chr>  <chr>       <dbl>   <dbl>       <dbl>     <dbl>
 1 AT           idees  pj_pj       0.574 0.00858      3.38     0.0731 
 2 BE           idees  pj_pj       0.339 0.0253       9.90     0.00133
 3 BG           idees  pj_pj       0.160 0            4.20     0.00787
 4 CY           idees  pj_pj       0.775 0            0        0.0486 
 5 CZ           idees  pj_pj       0.308 0.0253       2.14     0.00312
 6 DE           idees  pj_pj       0.376 0.0275      52.9      0.0166 
 7 DK           idees  pj_pj       0.544 0.145        3.01     0.0251 
 8 EE           idees  pj_pj       0.340 0            0.0324   0      
 9 EL           idees  pj_pj       0.696 0            0.191    0      
10 ES           idees  pj_pj       0.267 0.410       29.8      0.00175
# ℹ 17 more rows
# ℹ 4 more variables: solid_fossil_fuels <dbl>, steam <dbl>, total <dbl>,
#   oil_petro_product <dbl>

Show the code

chem_others_idees <- chem_others_idees |> 
  select(country_code, fuel, source, pj) |> 
  mutate(pj = round(pj , 3))

chem_others_idees

# A tibble: 216 × 4
   country_code fuel               source     pj
   <chr>        <chr>              <chr>   <dbl>
 1 AT           electricity        idees   6.76 
 2 AT           heat               idees   0.009
 3 AT           natural_gas        idees   3.38 
 4 AT           oil_petro_products idees   0.094
 5 AT           renew_bio          idees   0.861
 6 AT           solid_fossil_fuels idees   0.175
 7 AT           steam              idees   0.495
 8 AT           total              idees  11.8  
 9 BE           electricity        idees  11.0  
10 BE           heat               idees   0.025
# ℹ 206 more rows
…
