Analyzing Refinery Sector Product Flow of Light Liquid Fuels
…
Reading country names and codes

This is provided with the repository by default in the input_data\europe_country_codes directory by default.

Show the code

country_codes <- read_xlsx(here('input_data', 'europe_country_codes', 'europe_country_code.xlsx'), sheet = 1)

country_codes

# A tibble: 27 × 2
   country  country_iso_code
   <chr>    <chr>           
 1 Austria  AT              
 2 Belgium  BE              
 3 Bulgaria BG              
 4 Croatia  HR              
 5 Cyprus   CY              
 6 Czechia  CZ              
 7 Denmark  DK              
 8 Estonia  EE              
 9 Finland  FI              
10 France   FR              
# ℹ 17 more rows
…
ref_energy_to_idees

# A tibble: 27 × 6
   country_code country   year source fuel              pj_ref
   <chr>        <chr>    <dbl> <chr>  <chr>              <dbl>
 1 AT           Austria   2018 idees  light_liquid_fuel   278.
 2 BE           Belgium   2018 idees  light_liquid_fuel   833.
 3 BG           Bulgaria  2018 idees  light_liquid_fuel   185.
 4 CY           Cyprus    2018 idees  light_liquid_fuel     0 
 5 CZ           Czechia   2018 idees  light_liquid_fuel   211.
 6 DE           Germany   2018 idees  light_liquid_fuel  2844.
 7 DK           Denmark   2018 idees  light_liquid_fuel   293.
 8 EE           Estonia   2018 idees  light_liquid_fuel     0 
 9 EL           Greece    2018 idees  light_liquid_fuel   838.
10 ES           Spain     2018 idees  light_liquid_fuel  2033.
# ℹ 17 more rows
…
ref_output_eurostat

# A tibble: 27 × 6
   country_code country  fuel               year source   pj_ref
   <chr>        <chr>    <chr>             <dbl> <chr>     <dbl>
 1 BE           Belgium  light_liquid_fuel  2018 eurostat  833. 
 2 BG           Bulgaria light_liquid_fuel  2018 eurostat  185. 
 3 CZ           Czechia  light_liquid_fuel  2018 eurostat  211. 
 4 DK           Denmark  light_liquid_fuel  2018 eurostat  293. 
 5 DE           Germany  light_liquid_fuel  2018 eurostat 2844. 
 6 EE           Estonia  light_liquid_fuel  2018 eurostat    0  
 7 IE           Ireland  light_liquid_fuel  2018 eurostat   83.8
 8 EL           Greece   light_liquid_fuel  2018 eurostat  838. 
 9 ES           Spain    light_liquid_fuel  2018 eurostat 2033. 
10 FR           France   light_liquid_fuel  2018 eurostat 1622. 
# ℹ 17 more rows
…
aidres_production_country_2018

# A tibble: 185 × 5
   country_code sector_id  product_id      production_route_name production_kt_y
   <chr>        <chr>      <chr>           <chr>                           <dbl>
 1 AT           cement     cement          EU-mix-2018                    4214. 
 2 AT           chemical   chemical-PE     (NG)PE                           94.3
 3 AT           chemical   chemical-PEA    (NG)PEA                         130. 
 4 AT           chemical   chemical-olefi… (LN)O                          1273. 
 5 AT           fertiliser fertiliser-amm… (NG)NH3                         383. 
 6 AT           glass      glass-container (NG)                            577. 
 7 AT           refineries refineries-lig… REF-SMR                        6189. 
 8 AT           steel      steel-primary   BF-BOF                         6177  
 9 AT           steel      steel-secondary Scraps EAF                      708  
10 BE           cement     cement          EU-mix-2018                    5538. 
# ℹ 175 more rows
…
aidres_production_country_ref

# A tibble: 21 × 6
   country_code country  fuel               year source pj_ref
   <chr>        <chr>    <chr>             <dbl> <chr>   <dbl>
 1 AT           Austria  light_liquid_fuel  2018 aidres   265.
 2 BE           Belgium  light_liquid_fuel  2018 aidres  1064.
 3 BG           Bulgaria light_liquid_fuel  2018 aidres   268.
 4 CZ           Czechia  light_liquid_fuel  2018 aidres   263.
 5 DE           Germany  light_liquid_fuel  2018 aidres  3114.
 6 DK           Denmark  light_liquid_fuel  2018 aidres   238.
 7 EL           Greece   light_liquid_fuel  2018 aidres   577.
 8 ES           Spain    light_liquid_fuel  2018 aidres  1980.
 9 FI           Finland  light_liquid_fuel  2018 aidres   282.
10 FR           France   light_liquid_fuel  2018 aidres  1611.
# ℹ 11 more rows

Joining the data from three sources

Prepare the data from the three sources for comparison.

Show the code

bind_rows(aidres_production_country_ref, ref_energy_to_idees, ref_output_eurostat) |> 
  arrange(country_code) -> ref_data_sources

ref_data_sources

# A tibble: 75 × 6
   country_code country  fuel               year source   pj_ref
   <chr>        <chr>    <chr>             <dbl> <chr>     <dbl>
 1 AT           Austria  light_liquid_fuel  2018 aidres     265.
 2 AT           Austria  light_liquid_fuel  2018 idees      278.
 3 AT           Austria  light_liquid_fuel  2018 eurostat   278.
 4 BE           Belgium  light_liquid_fuel  2018 aidres    1064.
 5 BE           Belgium  light_liquid_fuel  2018 idees      833.
 6 BE           Belgium  light_liquid_fuel  2018 eurostat   833.
 7 BG           Bulgaria light_liquid_fuel  2018 aidres     268.
 8 BG           Bulgaria light_liquid_fuel  2018 idees      185.
 9 BG           Bulgaria light_liquid_fuel  2018 eurostat   185.
10 CY           Cyprus   light_liquid_fuel  2018 idees        0 
# ℹ 65 more rows
…
