Steel sector data analysis and input data preparation for EU/ Industrial Cluster case study in MOPO
…
Reading country names and codes

This is provided with the repository by default in the input_data\europe_country_codes directory.

Show the code

country_codes <- read_xlsx(here('input_data', 'europe_country_codes', 'europe_country_code.xlsx'), sheet = 1)

country_codes

# A tibble: 27 × 2
   country  country_iso_code
   <chr>    <chr>           
 1 Austria  AT              
 2 Belgium  BE              
 3 Bulgaria BG              
 4 Croatia  HR              
 5 Cyprus   CY              
 6 Czechia  CZ              
 7 Denmark  DK              
 8 Estonia  EE              
 9 Finland  FI              
10 France   FR              
# ℹ 17 more rows
…
  aidres_production_country_2018

# A tibble: 185 × 5
   country_code sector_id  product_id      production_route_name production_kt_y
   <chr>        <chr>      <chr>           <chr>                           <dbl>
 1 AT           cement     cement          EU-mix-2018                    4214. 
 2 AT           chemical   chemical-PE     (NG)PE                           94.3
 3 AT           chemical   chemical-PEA    (NG)PEA                         130. 
 4 AT           chemical   chemical-olefi… (LN)O                          1273. 
 5 AT           fertiliser fertiliser-amm… (NG)NH3                         383. 
 6 AT           glass      glass-container (NG)                            577. 
 7 AT           refineries refineries-lig… REF-SMR                        6189. 
 8 AT           steel      steel-primary   BF-BOF                         6177  
 9 AT           steel      steel-secondary Scraps EAF                      708  
10 BE           cement     cement          EU-mix-2018                    5538. 
# ℹ 175 more rows
…
aidres_2_0_production_country_2018

# A tibble: 186 × 5
   country_code sector_id  product_id      production_route_name production_kt_y
   <chr>        <chr>      <chr>           <chr>                           <dbl>
 1 AT           cement     cement          EU-mix-2018                    4214. 
 2 AT           chemical   chemical-PE     (NG)PE                           94.3
 3 AT           chemical   chemical-PEA    (NG)PEA                         130. 
 4 AT           chemical   chemical-olefi… (LN)O                          1273. 
 5 AT           fertiliser fertiliser-amm… (NG)NH3                         383. 
 6 AT           glass      glass-container (NG)                            577. 
 7 AT           refineries refineries-lig… REF-SMR                        6189. 
 8 AT           steel      steel-primary   BF-BOF                         6177  
 9 AT           steel      steel-secondary Scraps EAF                      708  
10 BE           cement     cement          EU-mix-2018                    5538. 
# ℹ 176 more rows
…
        # mutate(steel_total = rowSums(cbind(steel_primary, steel_secondary), na.rm = TRUE)) 
        # pivot_longer(cols = steel_primary:steel_total, names_to = 'product_id', values_to = 'kt') |> 
        # mutate(kt = replace_na(kt, 0))
      
  isi_aidres_production_comp

# A tibble: 33 × 5
   country_code production_route_name source product_id          kt
   <chr>        <chr>                 <chr>  <chr>            <dbl>
 1 AT           BF-BOF                aidres steel_primary    6177 
 2 AT           Scraps EAF            aidres steel_secondary   708 
 3 BE           BF-BOF                aidres steel_primary    5300 
 4 BE           Scraps EAF            aidres steel_secondary  2690 
 5 BG           Scraps EAF            aidres steel_secondary   666 
 6 CZ           BF-BOF                aidres steel_primary    4694 
 7 CZ           Scraps EAF            aidres steel_secondary   245 
 8 DE           BF-BOF                aidres steel_primary   30779.
 9 DE           Scraps EAF            aidres steel_secondary 11757.
10 EL           Scraps EAF            aidres steel_secondary  1467 
# ℹ 23 more rows
…
        # mutate(steel_total = rowSums(cbind(steel_primary, steel_secondary), na.rm = TRUE)) 
        # pivot_longer(cols = steel_primary:steel_total, names_to = 'product_id', values_to = 'kt') |> 
        # mutate(kt = replace_na(kt, 0))
      
  isi_aidres_2_0_production_comp

# A tibble: 33 × 5
   country_code production_route_name source product_id          kt
   <chr>        <chr>                 <chr>  <chr>            <dbl>
 1 AT           BF-BOF                aidres steel_primary    6177 
 2 AT           Scraps EAF            aidres steel_secondary   708 
 3 BE           BF-BOF                aidres steel_primary    5300 
 4 BE           Scraps EAF            aidres steel_secondary  2690 
 5 BG           Scraps EAF            aidres steel_secondary   666 
 6 CZ           BF-BOF                aidres steel_primary    4694 
 7 CZ           Scraps EAF            aidres steel_secondary   245 
 8 DE           BF-BOF                aidres steel_primary   30779.
 9 DE           Scraps EAF            aidres steel_secondary 11757.
10 EL           Scraps EAF            aidres steel_secondary  1467 
# ℹ 23 more rows
…
  aidres_energy_all

# A tibble: 338 × 9
   country_code country indicators   cement chemical fertiliser glass refineries
   <chr>        <chr>   <chr>         <dbl>    <dbl>      <dbl> <dbl>      <dbl>
 1 AT           Austria alternative…   3.12     0         0     0          0    
 2 AT           Austria biomass_pj_y   0        0         0     0          0    
 3 AT           Austria biomass_was…   1.87     0         0     0          0    
 4 AT           Austria coal_pj_y      4.85     0         0     0          0    
 5 AT           Austria coke_pj_y      0        0         0     0          0    
 6 AT           Austria crude_oil_p…   0        0         0     0        416.   
 7 AT           Austria electricity…   1.22     1.56      0.795 0.619      0.888
 8 AT           Austria hydrogen_pj…   0        0         0     0.025      0    
 9 AT           Austria methanol_pj…   0        0         0     0          0    
10 AT           Austria naphtha_pj_y   0       77.0       0     0          0    
# ℹ 328 more rows
# ℹ 1 more variable: steel <dbl>
…
  aidres_2_0_energy_all

# A tibble: 598 × 9
# Groups:   country_code [26]
   country_code indicators   country cement chemical fertiliser glass refineries
   <chr>        <chr>        <chr>    <dbl>    <dbl>      <dbl> <dbl>      <dbl>
 1 AT           alternative… Austria   3.12        0          0     0          0
 2 AT           ammonia_usa… Austria   0           0          0     0          0
 3 AT           bio_methano… Austria   0           0          0     0          0
 4 AT           bio_methano… Austria   0           0          0     0          0
 5 AT           bio_naphtha… Austria   0           0          0     0          0
 6 AT           bio_naphtha… Austria   0           0          0     0          0
 7 AT           biomass_imp… Austria   0           0          0     0          0
 8 AT           biomass_loc… Austria   0           0          0     0          0
 9 AT           biomass_usa… Austria   0           0          0     0          0
10 AT           biomass_was… Austria   1.87        0          0     0          0
# ℹ 588 more rows
# ℹ 1 more variable: steel <dbl>
…
aidres_cleaned_steel

# A tibble: 234 × 4
   country_code country fuel               steel_aidres
   <chr>        <chr>   <chr>                     <dbl>
 1 AT           Austria electricity               5.16 
 2 AT           Austria hydrogen                  0    
 3 AT           Austria methanol                  0    
 4 AT           Austria natural_gas               0.134
 5 AT           Austria total                   122.   
 6 AT           Austria solid_fossil_fuels      117.   
 7 AT           Austria renew_bio                 0    
 8 AT           Austria non_renew_waste           0    
 9 AT           Austria oil_petro_products        0    
10 BE           Belgium electricity               7.55 
# ℹ 224 more rows
…
  aidres_2_0_cleaned_steel

# A tibble: 468 × 4
# Groups:   country_code [26]
   country_code country fuel                steel_aidres
   <chr>        <chr>   <chr>                      <dbl>
 1 AT           Austria ammonia                     0   
 2 AT           Austria bio_methanol_import         0   
 3 AT           Austria bio_methanol_local          0   
 4 AT           Austria bio_naphtha_import          0   
 5 AT           Austria bio_naphtha_local           0   
 6 AT           Austria biomass_import              0   
 7 AT           Austria biomass_local               0   
 8 AT           Austria electricity                 5.16
 9 AT           Austria ethane                      0   
10 AT           Austria hydrogen                    0   
# ℹ 458 more rows
…
steel_energy_eurostat

# A tibble: 216 × 4
   country_code country fuel               steel_eurostat
   <chr>        <chr>   <chr>                       <dbl>
 1 AT           Austria electricity               13.8   
 2 AT           Austria heat                       0.299 
 3 AT           Austria natural_gas                2.22  
 4 AT           Austria non_renew_waste            0.597 
 5 AT           Austria oil_petro_products         0.0643
 6 AT           Austria renew_bio                  0.0638
 7 AT           Austria solid_fossil_fuels        88.5   
 8 AT           Austria total                    105.    
 9 BE           Belgium electricity               16.1   
10 BE           Belgium heat                       0     
# ℹ 206 more rows
…
Joining AIDRES/AIDRES 2.0 and EUROSTAT Steel energy consumption

Show the code

steel_eurostat_aidres <- steel_energy_eurostat |> 
  full_join(aidres_cleaned_steel, by = join_by(country_code, country, fuel)) |> 
  select(country_code, country, fuel, everything()) |> 
  pivot_longer(cols = steel_eurostat:steel_aidres, names_to = 'metadata', values_to = 'pj') |> 
  mutate(pj = round(pj, 2))|> 
  separate_wider_delim(metadata, delim = '_', names = c('sector', 'source'))

steel_eurostat_aidres 

# A tibble: 536 × 6
   country_code country fuel               sector source      pj
   <chr>        <chr>   <chr>              <chr>  <chr>    <dbl>
 1 AT           Austria electricity        steel  eurostat 13.8 
 2 AT           Austria electricity        steel  aidres    5.16
 3 AT           Austria heat               steel  eurostat  0.3 
 4 AT           Austria heat               steel  aidres   NA   
 5 AT           Austria natural_gas        steel  eurostat  2.22
 6 AT           Austria natural_gas        steel  aidres    0.13
 7 AT           Austria non_renew_waste    steel  eurostat  0.6 
 8 AT           Austria non_renew_waste    steel  aidres    0   
 9 AT           Austria oil_petro_products steel  eurostat  0.06
10 AT           Austria oil_petro_products steel  aidres    0   
# ℹ 526 more rows

Show the code

steel_eurostat_aidres_2_0 <- steel_energy_eurostat |> 
  full_join(aidres_2_0_cleaned_steel, by = join_by(country_code, country, fuel)) |> 
  select(country_code, country, fuel, everything()) |> 
  pivot_longer(cols = steel_eurostat:steel_aidres, names_to = 'metadata', values_to = 'pj') |> 
  mutate(pj = round(pj, 2))|> 
  separate_wider_delim(metadata, delim = '_', names = c('sector', 'source'))

steel_eurostat_aidres_2_0 

# A tibble: 1,004 × 6
   country_code country fuel               sector source      pj
   <chr>        <chr>   <chr>              <chr>  <chr>    <dbl>
 1 AT           Austria electricity        steel  eurostat 13.8 
 2 AT           Austria electricity        steel  aidres    5.16
 3 AT           Austria heat               steel  eurostat  0.3 
 4 AT           Austria heat               steel  aidres   NA   
 5 AT           Austria natural_gas        steel  eurostat  2.22
 6 AT           Austria natural_gas        steel  aidres    0.13
 7 AT           Austria non_renew_waste    steel  eurostat  0.6 
 8 AT           Austria non_renew_waste    steel  aidres    0   
 9 AT           Austria oil_petro_products steel  eurostat  0.06
10 AT           Austria oil_petro_products steel  aidres    0   
# ℹ 994 more rows
…
Show the code

steel_eurostat_aidres |> 
  select(-sector) |> 
  arrange(country_code, source, fuel) |> 
  pivot_wider(names_from = fuel, values_from = pj) |> 
  mutate(across(.cols = -(1:4), .fns = ~replace_na(., replace = 0)),
         across(.cols = -(1:4), .fns = ~round(., 2))) |> 
  arrange(country_code) |> 
  pivot_longer(electricity:total, names_to = 'fuel', values_to = 'pj') |> 
  pivot_wider(names_from = source, values_from = pj) -> steel_energy_eurostat_aidres

steel_energy_eurostat_aidres

# A tibble: 270 × 5
   country_code country fuel               aidres eurostat
   <chr>        <chr>   <chr>               <dbl>    <dbl>
 1 AT           Austria electricity          5.16    13.8 
 2 AT           Austria heat                 0        0.3 
 3 AT           Austria hydrogen             0        0   
 4 AT           Austria methanol             0        0   
 5 AT           Austria natural_gas          0.13     2.22
 6 AT           Austria non_renew_waste      0        0.6 
 7 AT           Austria oil_petro_products   0        0.06
 8 AT           Austria renew_bio            0        0.06
 9 AT           Austria solid_fossil_fuels 117.      88.5 
10 AT           Austria total              122.     105.  
# ℹ 260 more rows
Show the code

steel_eurostat_aidres_2_0 |> 
  select(-sector) |> 
  arrange(country_code, source, fuel) |> 
  pivot_wider(names_from = fuel, values_from = pj) |> 
  mutate(across(.cols = -(1:4), .fns = ~replace_na(., replace = 0)),
         across(.cols = -(1:4), .fns = ~round(., 2))) |> 
  arrange(country_code) |> 
  pivot_longer(electricity:total, names_to = 'fuel', values_to = 'pj') |> 
  pivot_wider(names_from = source, values_from = pj) -> steel_energy_eurostat_aidres_2_0

steel_energy_eurostat_aidres_2_0

# A tibble: 564 × 12
   country_code country ammonia bio_methanol_import bio_methanol_local
   <chr>        <chr>     <dbl>               <dbl>              <dbl>
 1 AT           Austria       0                   0                  0
 2 AT           Austria       0                   0                  0
 3 AT           Austria       0                   0                  0
 4 AT           Austria       0                   0                  0
 5 AT           Austria       0                   0                  0
 6 AT           Austria       0                   0                  0
 7 AT           Austria       0                   0                  0
 8 AT           Austria       0                   0                  0
 9 AT           Austria       0                   0                  0
10 AT           Austria       0                   0                  0
# ℹ 554 more rows
# ℹ 7 more variables: bio_naphtha_import <dbl>, bio_naphtha_local <dbl>,
#   biomass_import <dbl>, biomass_local <dbl>, fuel <chr>, aidres <dbl>,
#   eurostat <dbl>
…
Show the code

isi_r_tot<- rbind(isi_r_fec_sec, isi_r_fec_pri) |> ungroup()

isi_tot_rolling <- isi_r_tot |> 
  group_by(country_code, product) |> 
  summarise(total = sum(rolling_gj_idees)) |> ungroup() |>
  pivot_longer(cols = total, names_to = 'fuel', values_to = 'rolling_gj_idees') |> 
  mutate(country_share_roll =1) |>  
  rbind(isi_r_tot)

isi_tot_rolling

# A tibble: 216 × 5
   country_code product         fuel  rolling_gj_idees country_share_roll
   <chr>        <chr>           <chr>            <dbl>              <dbl>
 1 AT           steel-primary   total        11777043.                  1
 2 AT           steel-secondary total         1066661.                  1
 3 BE           steel-primary   total        11494112.                  1
 4 BE           steel-secondary total         3864477.                  1
 5 BG           steel-primary   total               0                   1
 6 BG           steel-secondary total          978356.                  1
 7 CY           steel-primary   total               0                   1
 8 CY           steel-secondary total               0                   1
 9 CZ           steel-primary   total         9253475.                  1
10 CZ           steel-secondary total          374482.                  1
# ℹ 206 more rows
…
Show the code

isi_f_tot<- rbind(isi_f_fec_sec, isi_f_fec_pri) |> ungroup()
  
isi_tot_finish <- isi_f_tot |> 
  group_by(country_code, product) |> 
  summarise(total = sum(finish_gj_idees)) |> ungroup() |>
  pivot_longer(cols = total, names_to = 'fuel', values_to = 'finish_gj_idees') |> 
  mutate(country_share_finish =1) |>  
  rbind(isi_f_tot)

isi_tot_finish

# A tibble: 324 × 5
   country_code product         fuel  finish_gj_idees country_share_finish
   <chr>        <chr>           <chr>           <dbl>                <dbl>
 1 AT           steel-primary   total        3759333.                    1
 2 AT           steel-secondary total         275271.                    1
 3 BE           steel-primary   total        5116184.                    1
 4 BE           steel-secondary total         939012.                    1
 5 BG           steel-primary   total              0                     1
 6 BG           steel-secondary total         868512.                    1
 7 CY           steel-primary   total              0                     1
 8 CY           steel-secondary total              0                     1
 9 CZ           steel-primary   total        3502737.                    1
10 CZ           steel-secondary total          89484.                    1
# ℹ 314 more rows

Total rolling and finishing energy

Show the code

isi_tot_roll_finish <- left_join(isi_tot_finish, isi_tot_rolling, by = join_by(country_code, product, fuel))

isi_tot_roll_finish

# A tibble: 324 × 7
   country_code product         fuel  finish_gj_idees country_share_finish
   <chr>        <chr>           <chr>           <dbl>                <dbl>
 1 AT           steel-primary   total        3759333.                    1
 2 AT           steel-secondary total         275271.                    1
 3 BE           steel-primary   total        5116184.                    1
 4 BE           steel-secondary total         939012.                    1
 5 BG           steel-primary   total              0                     1
 6 BG           steel-secondary total         868512.                    1
 7 CY           steel-primary   total              0                     1
 8 CY           steel-secondary total              0                     1
 9 CZ           steel-primary   total        3502737.                    1
10 CZ           steel-secondary total          89484.                    1
# ℹ 314 more rows
# ℹ 2 more variables: rolling_gj_idees <dbl>, country_share_roll <dbl>
…
