Preparation of Technology Catalogue for MOPO EU/ Industrial Cluster Case Study
…
aidres_2_0_configurations <- read_csv2(here(aidres_data, 'aidres_2_0_configurations.csv'))

aidres_2_0_products <- read_csv2(here(aidres_data, 'aidres_2_0_products.csv'))

aidres_2_0_perton <- read_delim(here(aidres_data, "aidres_2_0_perton.csv"),
                                 delim = ";",
                                 locale = locale(decimal_mark = ".", grouping_mark = ","),
                                 guess_max = 6000)

CCS_path <- here('input_data', 'aidres_data')
CCS_correction <- read_xlsx(here(CCS_path, 'CCS capex correction.xlsx'), sheet = 'Sheet1', range = 'A1:M86')
CCS_correction <- CCS_correction |> select('configuration_id', 'CAPEX to add (eur_ton product)')
CCS_correction

# A tibble: 85 × 2
   configuration_id `CAPEX to add (eur_ton product)`
              <dbl> <chr>                           
 1                2 20.811664                       
 2                4 24.368992000000002              
 3                7 17.100608000000001              
 4                9 26.388016000000004              
 5               12 19.433600000000002              
 6               14 19.119632000000003              
 7               17 25.266336000000003              
 8               19 28.701983999999999              
 9               22 15.562304000000003              
10               24 19.158192                       
# ℹ 75 more rows
…
    'H2' = hydrogen_usage_pj_t,
    'MeOH' = methanol_usage_pj_t,
    'CH4' = natural_gas_usage_pj_t) |> 
  pivot_longer(H2:HC, names_to = 'commodity', values_to = 'gj_t') |>
  mutate(gj_t = gj_t * 1000000,
         sector_id = tolower(sector_id)) |>
  rename(
    'to_node' = product_id,
    'from_node' = commodity,
    'Industry' = configuration) |>
  mutate(sector_id = tolower(sector_id)) |>
  mutate(mwh_t = round((gj_t * 0.277),5), .keep = 'unused') ->  sec_perton_all
sec_perton_all

# A tibble: 711 × 5
   sector_id to_node Industry    from_node  mwh_t
   <chr>     <chr>   <chr>       <chr>      <dbl>
 1 cement    cement  EU-mix-2018 H2        0     
 2 cement    cement  EU-mix-2018 MeOH      0     
 3 cement    cement  EU-mix-2018 NH3       0     
 4 cement    cement  EU-mix-2018 elec      0.0801
 5 cement    cement  EU-mix-2018 CH4       0     
 6 cement    cement  EU-mix-2018 coal      0.319 
 7 cement    cement  EU-mix-2018 bio       0.123 
 8 cement    cement  EU-mix-2018 waste     0.205 
 9 cement    cement  EU-mix-2018 HC        0     
10 cement    cement  CEM2-(Coal) H2        0     
# ℹ 701 more rows
…
sec_perton_all

# A tibble: 185 × 9
   sector_id to_node unit  Industry        from_node `2025` `2030` `2040` `2050`
   <chr>     <chr>   <chr> <chr>           <chr>      <dbl>  <dbl>  <dbl>  <dbl>
 1 cement    cement  mwh_t EU-mix-2018     elec      0.0801 0.0801 0.0801 0.0801
 2 cement    cement  mwh_t EU-mix-2018     coal      0.319  0.319  0.319  0.319 
 3 cement    cement  mwh_t EU-mix-2018     bio       0.123  0.123  0.123  0.123 
 4 cement    cement  mwh_t EU-mix-2018     waste     0.205  0.205  0.205  0.205 
 5 cement    cement  mwh_t CEM2-(Coal)     elec      0.0801 0.0801 0.0801 0.0801
 6 cement    cement  mwh_t CEM2-(Coal)     coal      0.590  0.590  0.590  0.590 
 7 cement    cement  mwh_t CEM2-(Coal)CaL  elec      0.130  0.130  0.130  0.130 
 8 cement    cement  mwh_t CEM2-(Coal)CaL  coal      0.590  0.590  0.590  0.590 
 9 cement    cement  mwh_t CEM2-(Coal)Oxy… elec      0.158  0.158  0.158  0.158 
10 cement    cement  mwh_t CEM2-(Coal)Oxy… coal      0.594  0.594  0.594  0.594 
# ℹ 175 more rows
…
costs_capex_perton_all <- costs_perton_all |> 
                          filter(costs == 'capex') |>
                          bind_rows(extra_data_capex_filtered) |>
                          mutate(unit = case_when(sector_id == 'refineries' ~ 'eur-yr_mwh',
                            .default = 'eur-yr_t')) |>
                          mutate(to_node = if_else(Industry %in% c("(H2)MeOH-DC", "(BM)MeOH", "(COEL)MeOH-MEA"), "HC-MeOH", to_node)) |>
                          mutate(to_node = if_else(to_node %in% c("fertiliser-ammonia"), "fertiliser-ammonia-NH3", to_node))
costs_capex_perton_all

# A tibble: 81 × 9
   sector_id Industry           to_node costs unit   `2025` `2030` `2040` `2050`
   <chr>     <chr>              <chr>   <chr> <chr>   <dbl>  <dbl>  <dbl>  <dbl>
 1 cement    EU-mix-2018        cement  capex eur-y…   56.2   56.2   56.2   56.2
 2 cement    CEM2-(Coal)        cement  capex eur-y…   56.2   56.2   56.2   56.2
 3 cement    CEM2-(Coal)CaL     cement  capex eur-y…  393.   393.   393.   393. 
 4 cement    CEM2-(Coal)Oxy-CaL cement  capex eur-y…  281.   281.   281.   281. 
 5 cement    CEM2-(Afm)         cement  capex eur-y…   56.2   56.2   56.2   56.2
 6 cement    CEM2-(Afm)MEA      cement  capex eur-y…  366.   366.   366.   366. 
 7 cement    CEM2-(Afm)CaL      cement  capex eur-y…  412.   412.   412.   412. 
 8 cement    CEM2-(Afm)Oxy-CaL  cement  capex eur-y…  281.   281.   281.   281. 
 9 cement    CEM2-(BMW)         cement  capex eur-y…   56.2   56.2   56.2   56.2
10 cement    CEM2-(BMW)MEA      cement  capex eur-y…  446.   446.   446.   446. 
# ℹ 71 more rows

Show the code

costs_fom_perton_all <- costs_perton_all |> 
                        filter(costs == 'fom') |>
                        bind_rows(extra_data_fom_filtered) |>
                        mutate(unit = case_when(sector_id == 'refineries' ~ 'eur_mwh',
                          .default = 'eur_t')) |>
                        mutate(to_node = if_else(Industry %in% c("(H2)MeOH-DC", "(BM)MeOH", "(COEL)MeOH-MEA"), "HC-MeOH", to_node)) |>
                        mutate(to_node = if_else(to_node %in% c("fertiliser-ammonia"), "fertiliser-ammonia-NH3", to_node))

costs_fom_perton_all

# A tibble: 81 × 9
   sector_id Industry           to_node costs unit  `2025` `2030` `2040` `2050`
   <chr>     <chr>              <chr>   <chr> <chr>  <dbl>  <dbl>  <dbl>  <dbl>
 1 cement    EU-mix-2018        cement  fom   eur_t   29.0   29.0   29.0   29.0
 2 cement    CEM2-(Coal)        cement  fom   eur_t   29.0   29.0   29.0   29.0
 3 cement    CEM2-(Coal)CaL     cement  fom   eur_t   37.7   37.7   37.7   37.7
 4 cement    CEM2-(Coal)Oxy-CaL cement  fom   eur_t   35.7   35.7   35.7   35.7
 5 cement    CEM2-(Afm)         cement  fom   eur_t   29.0   29.0   29.0   29.0
 6 cement    CEM2-(Afm)MEA      cement  fom   eur_t   29.0   29.0   29.0   29.0
 7 cement    CEM2-(Afm)CaL      cement  fom   eur_t   37.8   37.8   37.8   37.8
 8 cement    CEM2-(Afm)Oxy-CaL  cement  fom   eur_t   34.4   34.4   34.4   34.4
 9 cement    CEM2-(BMW)         cement  fom   eur_t   29.0   29.0   29.0   29.0
10 cement    CEM2-(BMW)MEA      cement  fom   eur_t   29.0   29.0   29.0   29.0
# ℹ 71 more rows
…
emission_co2_capture_perton_all <- emission_perton_all |> 
                                    filter(emission == 'co2_capture') |>
                                    bind_rows(extra_data_co2_capture_filtered) |>
                                    mutate(to_node = if_else(Industry %in% c("(H2)MeOH-DC", "(BM)MeOH", "(COEL)MeOH-MEA"), "HC-MeOH", to_node)) |>
                                    mutate(to_node = if_else(to_node %in% c("fertiliser-ammonia"), "fertiliser-ammonia-NH3", to_node))
emission_co2_capture_perton_all

# A tibble: 81 × 9
   sector_id Industry         to_node emission unit  `2025` `2030` `2040` `2050`
   <chr>     <chr>            <chr>   <chr>    <chr>  <dbl>  <dbl>  <dbl>  <dbl>
 1 cement    EU-mix-2018      cement  co2_cap… tco2…  0      0      0      0    
 2 cement    CEM2-(Coal)      cement  co2_cap… tco2…  0      0      0      0    
 3 cement    CEM2-(Coal)CaL   cement  co2_cap… tco2…  0.438  0.438  0.438  0.438
 4 cement    CEM2-(Coal)Oxy-… cement  co2_cap… tco2…  0.533  0.533  0.533  0.533
 5 cement    CEM2-(Afm)       cement  co2_cap… tco2…  0      0      0      0    
 6 cement    CEM2-(Afm)MEA    cement  co2_cap… tco2…  0.516  0.516  0.516  0.516
 7 cement    CEM2-(Afm)CaL    cement  co2_cap… tco2…  0.448  0.448  0.448  0.448
 8 cement    CEM2-(Afm)Oxy-C… cement  co2_cap… tco2…  0.457  0.457  0.457  0.457
 9 cement    CEM2-(BMW)       cement  co2_cap… tco2…  0      0      0      0    
10 cement    CEM2-(BMW)MEA    cement  co2_cap… tco2…  0.65   0.65   0.65   0.65 
# ℹ 71 more rows

Show the code

emission_co2_emission_perton_all <- emission_perton_all |> 
                                    filter(emission == 'co2_emission') |>
                                    bind_rows(extra_data_co2_emission_filtered) |>
                                    mutate(to_node = if_else(Industry %in% c("(H2)MeOH-DC", "(BM)MeOH", "(COEL)MeOH-MEA"), "HC-MeOH", to_node)) |>
                                    mutate(to_node = if_else(to_node %in% c("fertiliser-ammonia"), "fertiliser-ammonia-NH3", to_node)) 
emission_co2_emission_perton_all

# A tibble: 81 × 9
   sector_id Industry         to_node emission unit  `2025` `2030` `2040` `2050`
   <chr>     <chr>            <chr>   <chr>    <chr>  <dbl>  <dbl>  <dbl>  <dbl>
 1 cement    EU-mix-2018      cement  co2_emi… tco2…  0.498  0.498  0.498  0.498
 2 cement    CEM2-(Coal)      cement  co2_emi… tco2…  0.524  0.524  0.524  0.524
 3 cement    CEM2-(Coal)CaL   cement  co2_emi… tco2…  0.086  0.086  0.086  0.086
 4 cement    CEM2-(Coal)Oxy-… cement  co2_emi… tco2…  0.083  0.083  0.083  0.083
 5 cement    CEM2-(Afm)       cement  co2_emi… tco2…  0.535  0.535  0.535  0.535
 6 cement    CEM2-(Afm)MEA    cement  co2_emi… tco2…  0.129  0.129  0.129  0.129
 7 cement    CEM2-(Afm)CaL    cement  co2_emi… tco2…  0.088  0.088  0.088  0.088
 8 cement    CEM2-(Afm)Oxy-C… cement  co2_emi… tco2…  0.075  0.075  0.075  0.075
 9 cement    CEM2-(BMW)       cement  co2_emi… tco2…  0.342  0.342  0.342  0.342
10 cement    CEM2-(BMW)MEA    cement  co2_emi… tco2… -0.308 -0.308 -0.308 -0.308
# ℹ 71 more rows
…
extra_data_production_processed_2018 <- extra_data_production_processed |>
  select(c(country_code, sector_id, to_node, Industry, unit, `2018`))

extra_data_production_processed_2030_2050 <- extra_data_production_processed |>
  select(c(country_code, sector_id, to_node, unit, `2030`, `2050`))

extra_data_production_processed

# A tibble: 78 × 28
   country_code sector    commodity indicator unit  value  conv value_conv  year
   <chr>        <chr>     <chr>     <chr>     <chr> <dbl> <dbl>      <dbl> <dbl>
 1 CH           cement    cement    product … kt_yr  3560    NA      3560   2024
 2 CH           fertilis… ammonia   product … kt_yr    14     1        17   2023
 3 CH           steel     steel-pr… capacity  kt_yr     0     1         0   2018
 4 CH           steel     steel-se… product … kt_yr  1314    NA      1314   2024
 5 CH           glass     glass-co… product … kt_yr   169    NA       169   2023
 6 CH           glass     glass-fi… product … kt_yr     0    NA         0   2025
 7 CH           glass     glass-fl… product … kt_yr     0    NA         0   2025
 8 CH           chemical  olefins   product … kt_yr     0    NA         0   2026
 9 CH           refineri… light li… capacity  kt_yr  3230     1      2061.  2025
10 NO           cement    cement    product … kt_yr  1700    NA      1700   2025
# ℹ 68 more rows
# ℹ 19 more variables: latest_year <chr>, source1 <chr>, source2 <chr>,
#   comments <chr>, ...14 <lgl>, has_latest <lgl>, sector_id <chr>,
#   to_node <chr>, Industry <chr>, production_factor_2018 <dbl>, `2018o` <dbl>,
#   production_factor_2030 <dbl>, `2030o` <dbl>, production_factor_2050 <dbl>,
#   `2050o` <dbl>, useful_energy_per_capacity <dbl>, `2018` <dbl>,
#   `2030` <dbl>, `2050` <dbl>
…
  mutate(to_node = case_when(sector_id == 'refineries'~ 'HC',
                             .default = to_node)) |>
  pivot_longer(cols = `2018`, names_to = 'year', values_to = 'value') |>
  mutate(value = case_when(sector_id == 'refineries' ~ round(value*11.92*1000,3),
                            .default = value)) |>
  mutate(unit = case_when(sector_id == 'refineries' ~ 'mwh_yr',
                            .default = 'kt_yr')) |>
  mutate(Industry = case_when(to_node == 'glass-container'~ paste0(Industry, '_gco'),
                              to_node == 'glass-fibre'~ paste0(Industry, '_gfi'),
                              to_node == 'glass-float'~ paste0(Industry, '_gfl'),
                              .default = Industry)) |>
 pivot_wider(names_from = year, values_from = value) -> prod_vol_cap_2018year
prod_vol_cap_2018year

# A tibble: 264 × 6
   country_code sector_id  to_node                Industry    unit       `2018`
   <chr>        <chr>      <chr>                  <chr>       <chr>       <dbl>
 1 AT           cement     cement                 EU-mix-2018 kt_yr      4214. 
 2 AT           chemical   chemical-PE            (NG)PE      kt_yr        94.3
 3 AT           chemical   chemical-PEA           (NG)PEA     kt_yr       130. 
 4 AT           chemical   chemical-olefins       (LN)O       kt_yr      1273. 
 5 AT           fertiliser fertiliser-ammonia-NH3 (NG)NH3     kt_yr       383. 
 6 AT           glass      glass-container        (NG)_gco    kt_yr       577. 
 7 AT           refineries HC                     REF-SMR     mwh_yr 73768112  
 8 AT           steel      steel-primary          BF-BOF      kt_yr      6177  
 9 AT           steel      steel-secondary        Scraps_EAF  kt_yr       708. 
10 BE           cement     cement                 EU-mix-2018 kt_yr      5538. 
# ℹ 254 more rows
…
  mutate(to_node = if_else(to_node %in% c("fertiliser-ammonia"), "fertiliser-ammonia-NH3", to_node)) |>
  filter(production != 0) |> 
  pivot_wider(names_from = year, values_from = production) |>
  bind_rows(extra_data_production_processed_2030_2050) |>
  mutate(to_node = case_when(sector_id == 'refineries'~ 'HC',
                             .default = to_node)) |>
  pivot_longer(cols = `2030`:`2050`, names_to = 'year', values_to = 'value') |>
  mutate(value = case_when(sector_id == 'refineries' ~ round(value*11.92*1000,3),
                           .default = value)) |>
  mutate(unit = case_when(sector_id == 'refineries' ~ 'mwh_yr',
                          .default = 'kt_yr')) |>
  pivot_wider(names_from = year, values_from = value)->prod_vol_cap_allyear
prod_vol_cap_allyear

# A tibble: 264 × 6
   country_code sector_id  to_node                unit       `2030`     `2050`
   <chr>        <chr>      <chr>                  <chr>       <dbl>      <dbl>
 1 AT           cement     cement                 kt_yr      4214.      4214. 
 2 AT           chemical   chemical-PE            kt_yr        94.3       94.3
 3 AT           chemical   chemical-PEA           kt_yr       130.       130. 
 4 AT           chemical   chemical-olefins       kt_yr      1273.      1273. 
 5 AT           fertiliser fertiliser-ammonia-NH3 kt_yr       383.       383. 
 6 AT           glass      glass-container        kt_yr       577.       577. 
 7 AT           refineries HC                     mwh_yr 62053736.  21569796. 
 8 AT           steel      steel-primary          kt_yr      6177       6177  
 9 AT           steel      steel-secondary        kt_yr       708.       708. 
10 BE           cement     cement                 kt_yr      5538.      5538. 
# ℹ 254 more rows
…
  mutate(to_node = case_when(sector_id == 'refineries'~ 'HC',
                             .default = to_node)) |>
   pivot_longer(cols = `2018`, names_to = 'year', values_to = 'value') |>
   mutate(value = case_when(sector_id == 'refineries' ~ round(value*11.92*1000,3),
                            .default = value)) |>
   mutate(unit = case_when(sector_id == 'refineries' ~ 'mwh_yr',
                            .default = 'kt_yr')) |>
  mutate(Industry = case_when(to_node == 'glass-container'~ paste0(Industry, '_gco'),
                              to_node == 'glass-fibre'~ paste0(Industry, '_gfi'),
                              to_node == 'glass-float'~ paste0(Industry, '_gfl'),
                              .default = Industry)) |>
 pivot_wider(names_from = year, values_from = value) -> prod_vol_cap_2018year_nuts3
prod_vol_cap_2018year_nuts3

# A tibble: 871 × 7
   country_code nuts3 sector_id  to_node          Industry    unit       `2018`
   <chr>        <chr> <chr>      <chr>            <chr>       <chr>       <dbl>
 1 AT           AT121 glass      glass-container  (NG)_gco    kt_yr       192. 
 2 AT           AT122 cement     cement           EU-mix-2018 kt_yr       449. 
 3 AT           AT124 chemical   chemical-PE      (NG)PE      kt_yr        47.2
 4 AT           AT124 chemical   chemical-PEA     (NG)PEA     kt_yr        43.4
 5 AT           AT127 cement     cement           EU-mix-2018 kt_yr       932. 
 6 AT           AT127 chemical   chemical-PE      (NG)PE      kt_yr        47.2
 7 AT           AT127 chemical   chemical-PEA     (NG)PEA     kt_yr        43.4
 8 AT           AT127 chemical   chemical-olefins (LN)O       kt_yr      1273. 
 9 AT           AT127 refineries HC               REF-SMR     mwh_yr 73768112  
10 AT           AT213 cement     cement           EU-mix-2018 kt_yr       674. 
# ℹ 861 more rows
…
  mutate(production = case_when(
    nuts3 == "BE211" & to_node == "chemical-olefins" ~ production - 2273,
    TRUE ~ production)) |>
  pivot_wider(names_from = year, values_from = production) |>
  mutate(to_node = case_when(sector_id == 'refineries'~ 'HC',
                             .default = to_node)) |>
   pivot_longer(cols = `2030`:`2050`, names_to = 'year', values_to = 'value') |>
   mutate(value = case_when(sector_id == 'refineries' ~ round(value*11.92*1000,3),
                            .default = value)) |>
   mutate(unit = case_when(sector_id == 'refineries' ~ 'mwh_yr',
                            .default = 'kt_yr')) |>
 pivot_wider(names_from = year, values_from = value)->prod_vol_cap_allyear_nuts3
prod_vol_cap_allyear_nuts3

# A tibble: 871 × 7
   country_code nuts3 sector_id  to_node          unit       `2030`     `2050`
   <chr>        <chr> <chr>      <chr>            <chr>       <dbl>      <dbl>
 1 AT           AT121 glass      glass-container  kt_yr       192.       192. 
 2 AT           AT122 cement     cement           kt_yr       449.       449. 
 3 AT           AT124 chemical   chemical-PE      kt_yr        47.2       47.2
 4 AT           AT124 chemical   chemical-PEA     kt_yr        43.4       43.4
 5 AT           AT127 cement     cement           kt_yr       932.       932. 
 6 AT           AT127 chemical   chemical-PE      kt_yr        47.2       47.2
 7 AT           AT127 chemical   chemical-PEA     kt_yr        43.4       43.4
 8 AT           AT127 chemical   chemical-olefins kt_yr      1273.      1273. 
 9 AT           AT127 refineries HC               mwh_yr 62053736.  21569796. 
10 AT           AT213 cement     cement           kt_yr       674.       674. 
# ℹ 861 more rows
…
costs_capex_perton_all |> 
  select(-c(`2025`: `2050`, costs)) |> 
  mutate(unit = 'yr',
         life = 40) |>
  filter(!Industry %in% extra_data_life_filtered$Industry)|>
  bind_rows(extra_data_life_filtered) |>
  mutate(to_node = if_else(Industry %in% c("(H2)MeOH-DC", "(BM)MeOH", "(COEL)MeOH-MEA"), "HC-MeOH", to_node)) |>
  mutate(to_node = if_else(to_node %in% c("fertiliser-ammonia"), "fertiliser-ammonia-NH3", to_node)) -> life_prodroute_all

life_prodroute_all

# A tibble: 81 × 5
   sector_id Industry           to_node unit   life
   <chr>     <chr>              <chr>   <chr> <dbl>
 1 cement    EU-mix-2018        cement  yr       40
 2 cement    CEM2-(Coal)        cement  yr       40
 3 cement    CEM2-(Coal)CaL     cement  yr       40
 4 cement    CEM2-(Coal)Oxy-CaL cement  yr       40
 5 cement    CEM2-(Afm)         cement  yr       40
 6 cement    CEM2-(Afm)MEA      cement  yr       40
 7 cement    CEM2-(Afm)CaL      cement  yr       40
 8 cement    CEM2-(Afm)Oxy-CaL  cement  yr       40
 9 cement    CEM2-(BMW)         cement  yr       40
10 cement    CEM2-(BMW)MEA      cement  yr       40
# ℹ 71 more rows
…
